<svg xmlns="http://www.w3.org/2000/svg" viewBox="0 0 99 99">
  <path
     d="M 59,99 C 40,101 20,93 8,78 38,96 79,84 83,60 87,35 70,23 54,22 32,22 8,35 30,59 c 5,5 20,12 28,-0 14,-23 -34,-23 -9,-2 -17,1 -20,-11 -15,-17 3,-5 22,-9 29,-2 17,13 -0,38 -16,42 C 28,84 8,71 3,54 -10,16 24,-2 54,0 83,2 100,22 99,52 98,70 79,96 59,99 Z"
     style="fill:#ffffff"
  />
</svg>